testname,readers,read_strategy,write_strategy,read_range_size,seconds,value_size,rw_ratio,key_count,start,end,duration,execution_time,read_count,bytes_read,write_count,bytes_written
readrate-02-ugster28-2019-12-16--03-08-10.log,readrate,12,scattered,clustered,1,100,100,25,100000,12-16 03:08:11,12-16 03:09:51,100.001,170.809,32660000,3266000000,1255577,125557700
readrate-02-ugster28-2019-12-16--03-08-10.log,readrate,12,scattered,clustered,1,100,100,25,500000,12-16 03:10:01,12-16 03:11:41,100.001,264.15,31700000,3170000000,1218519,121851900
readrate-02-ugster28-2019-12-16--03-08-10.log,readrate,12,scattered,clustered,1,100,100,25,1000000,12-16 03:11:51,12-16 03:13:31,100.001,363.251,31648000,3164800000,1216583,121658300
readrate-02-ugster28-2019-12-16--03-08-10.log,readrate,12,scattered,clustered,1,100,100,25,1500000,12-16 03:13:41,12-16 03:15:21,100.001,374.998,31672000,3167200000,1217488,121748800
readrate-02-ugster28-2019-12-16--03-08-10.log,readrate,12,scattered,clustered,1,100,100,25,2000000,12-16 03:15:32,12-16 03:17:12,100.001,419.351,31741000,3174100000,1220267,122026700
readrate-02-ugster28-2019-12-16--03-08-10.log,readrate,12,scattered,clustered,1,100,100,25,5000000,12-16 03:17:22,12-16 03:19:02,100.001,545.9,32145000,3214500000,1235740,123574000
readrate-01-ugster28-2019-12-16--02-56-55.log,readrate,12,scattered,clustered,1,100,100,100,100000,12-16 02:56:56,12-16 02:58:36,100.002,293.01,81076000,8107600000,810317,81031700
readrate-01-ugster28-2019-12-16--02-56-55.log,readrate,12,scattered,clustered,1,100,100,100,500000,12-16 02:58:46,12-16 03:00:26,100.001,390.86,73926000,7392600000,738749,73874900
readrate-01-ugster28-2019-12-16--02-56-55.log,readrate,12,scattered,clustered,1,100,100,100,1000000,12-16 03:00:36,12-16 03:02:16,100.001,494.18,65978000,6597800000,659280,65928000
readrate-01-ugster28-2019-12-16--02-56-55.log,readrate,12,scattered,clustered,1,100,100,100,1500000,12-16 03:02:26,12-16 03:04:06,100.001,510.728,63419000,6341900000,633738,63373800
readrate-01-ugster28-2019-12-16--02-56-55.log,readrate,12,scattered,clustered,1,100,100,100,2000000,12-16 03:04:16,12-16 03:05:56,100.001,530.84,60637000,6063700000,605950,60595000
readrate-01-ugster28-2019-12-16--02-56-55.log,readrate,12,scattered,clustered,1,100,100,100,5000000,12-16 03:06:19,12-16 03:07:59,100.001,609.738,55253000,5525300000,552093,55209300
readrate-04-ugster28-2019-12-16--03-30-19.log,readrate,12,scattered,clustered,1,100,100,5,100000,12-16 03:30:20,12-16 03:32:00,100.001,64.1305,8661000,866100000,1441191,144119100
readrate-04-ugster28-2019-12-16--03-30-19.log,readrate,12,scattered,clustered,1,100,100,5,500000,12-16 03:32:10,12-16 03:33:50,100.001,96.4584,8599000,859900000,1431089,143108900
readrate-04-ugster28-2019-12-16--03-30-19.log,readrate,12,scattered,clustered,1,100,100,5,1000000,12-16 03:34:01,12-16 03:35:41,100.001,118.842,8446000,844600000,1405580,140558000
readrate-04-ugster28-2019-12-16--03-30-19.log,readrate,12,scattered,clustered,1,100,100,5,1500000,12-16 03:35:51,12-16 03:37:31,100.001,122.3,8409000,840900000,1398565,139856500
readrate-04-ugster28-2019-12-16--03-30-19.log,readrate,12,scattered,clustered,1,100,100,5,2000000,12-16 03:37:41,12-16 03:39:21,100.003,125.714,8367000,836700000,1391821,139182100
readrate-04-ugster28-2019-12-16--03-30-19.log,readrate,12,scattered,clustered,1,100,100,5,5000000,12-16 03:39:32,12-16 03:41:12,100.001,155.408,8206000,820600000,1365025,136502500
readrate-03-ugster28-2019-12-16--03-19-14.log,readrate,12,scattered,clustered,1,100,100,10,100000,12-16 03:19:15,12-16 03:20:55,100.001,92.7812,15658000,1565800000,1422199,142219900
readrate-03-ugster28-2019-12-16--03-19-14.log,readrate,12,scattered,clustered,1,100,100,10,500000,12-16 03:21:06,12-16 03:22:46,100.001,145.271,15270000,1527000000,1386937,138693700
readrate-03-ugster28-2019-12-16--03-19-14.log,readrate,12,scattered,clustered,1,100,100,10,1000000,12-16 03:22:56,12-16 03:24:36,100.004,191.009,14805000,1480500000,1344755,134475500
readrate-03-ugster28-2019-12-16--03-19-14.log,readrate,12,scattered,clustered,1,100,100,10,1500000,12-16 03:24:46,12-16 03:26:26,100.001,188.441,14641000,1464100000,1329881,132988100
readrate-03-ugster28-2019-12-16--03-19-14.log,readrate,12,scattered,clustered,1,100,100,10,2000000,12-16 03:26:37,12-16 03:28:17,100.001,196.243,14571000,1457100000,1323081,132308100
readrate-03-ugster28-2019-12-16--03-19-14.log,readrate,12,scattered,clustered,1,100,100,10,5000000,12-16 03:28:27,12-16 03:30:07,100.001,248.566,14174000,1417400000,1287043,128704300
